%YAML 1.1
%TAG !u! tag:unity3d.com,2011:
--- !u!1 &2725262170106483811
GameObject:
  m_ObjectHideFlags: 0
  m_CorrespondingSourceObject: {fileID: 0}
  m_PrefabInstance: {fileID: 0}
  m_PrefabAsset: {fileID: 0}
  serializedVersion: 6
  m_Component:
  - component: {fileID: 7213113154184615348}
  - component: {fileID: 1167023317863992923}
  m_Layer: 0
  m_Name: HitSound
  m_TagString: Untagged
  m_Icon: {fileID: 0}
  m_NavMeshLayer: 0
  m_StaticEditorFlags: 0
  m_IsActive: 1
--- !u!4 &7213113154184615348
Transform:
  m_ObjectHideFlags: 0
  m_CorrespondingSourceObject: {fileID: 0}
  m_PrefabInstance: {fileID: 0}
  m_PrefabAsset: {fileID: 0}
  m_GameObject: {fileID: 2725262170106483811}
  m_LocalRotation: {x: 0, y: 0, z: 0, w: 1}
  m_LocalPosition: {x: 0, y: 0, z: 0}
  m_LocalScale: {x: 1, y: 1, z: 1}
  m_Children: []
  m_Father: {fileID: 2647716608353473979}
  m_RootOrder: 1
  m_LocalEulerAnglesHint: {x: 0, y: 0, z: 0}
--- !u!82 &1167023317863992923
AudioSource:
  m_ObjectHideFlags: 0
  m_CorrespondingSourceObject: {fileID: 0}
  m_PrefabInstance: {fileID: 0}
  m_PrefabAsset: {fileID: 0}
  m_GameObject: {fileID: 2725262170106483811}
  m_Enabled: 1
  serializedVersion: 4
  OutputAudioMixerGroup: {fileID: 0}
  m_audioClip: {fileID: 8300000, guid: 151fa7778dc9cf14ba998127d188283b, type: 3}
  m_PlayOnAwake: 0
  m_Volume: 1
  m_Pitch: 1
  Loop: 0
  Mute: 0
  Spatialize: 0
  SpatializePostEffects: 0
  Priority: 128
  DopplerLevel: 1
  MinDistance: 1
  MaxDistance: 500
  Pan2D: 0
  rolloffMode: 0
  BypassEffects: 0
  BypassListenerEffects: 0
  BypassReverbZones: 0
  rolloffCustomCurve:
    serializedVersion: 2
    m_Curve:
    - serializedVersion: 3
      time: 0
      value: 1
      inSlope: 0
      outSlope: 0
      tangentMode: 0
      weightedMode: 0
      inWeight: 0.33333334
      outWeight: 0.33333334
    - serializedVersion: 3
      time: 1
      value: 0
      inSlope: 0
      outSlope: 0
      tangentMode: 0
      weightedMode: 0
      inWeight: 0.33333334
      outWeight: 0.33333334
    m_PreInfinity: 2
    m_PostInfinity: 2
    m_RotationOrder: 4
  panLevelCustomCurve:
    serializedVersion: 2
    m_Curve:
    - serializedVersion: 3
      time: 0
      value: 1
      inSlope: 0
      outSlope: 0
      tangentMode: 0
      weightedMode: 0
      inWeight: 0.33333334
      outWeight: 0.33333334
    m_PreInfinity: 2
    m_PostInfinity: 2
    m_RotationOrder: 4
  spreadCustomCurve:
    serializedVersion: 2
    m_Curve:
    - serializedVersion: 3
      time: 0
      value: 0
      inSlope: 0
      outSlope: 0
      tangentMode: 0
      weightedMode: 0
      inWeight: 0.33333334
      outWeight: 0.33333334
    m_PreInfinity: 2
    m_PostInfinity: 2
    m_RotationOrder: 4
  reverbZoneMixCustomCurve:
    serializedVersion: 2
    m_Curve:
    - serializedVersion: 3
      time: 0
      value: 1
      inSlope: 0
      outSlope: 0
      tangentMode: 0
      weightedMode: 0
      inWeight: 0.33333334
      outWeight: 0.33333334
    m_PreInfinity: 2
    m_PostInfinity: 2
    m_RotationOrder: 4
--- !u!1 &4451018293862302076
GameObject:
  m_ObjectHideFlags: 0
  m_CorrespondingSourceObject: {fileID: 0}
  m_PrefabInstance: {fileID: 0}
  m_PrefabAsset: {fileID: 0}
  serializedVersion: 6
  m_Component:
  - component: {fileID: 2647716608353473979}
  - component: {fileID: 5227979695069935237}
  m_Layer: 0
  m_Name: Dagger
  m_TagString: Untagged
  m_Icon: {fileID: 0}
  m_NavMeshLayer: 0
  m_StaticEditorFlags: 0
  m_IsActive: 1
--- !u!4 &2647716608353473979
Transform:
  m_ObjectHideFlags: 0
  m_CorrespondingSourceObject: {fileID: 0}
  m_PrefabInstance: {fileID: 0}
  m_PrefabAsset: {fileID: 0}
  m_GameObject: {fileID: 4451018293862302076}
  m_LocalRotation: {x: 0, y: 0, z: 0, w: 1}
  m_LocalPosition: {x: 0, y: 0, z: 0}
  m_LocalScale: {x: 1, y: 1, z: 1}
  m_Children:
  - {fileID: 657683637839396275}
  - {fileID: 7213113154184615348}
  m_Father: {fileID: 0}
  m_RootOrder: 0
  m_LocalEulerAnglesHint: {x: 0, y: 0, z: 0}
--- !u!114 &5227979695069935237
MonoBehaviour:
  m_ObjectHideFlags: 0
  m_CorrespondingSourceObject: {fileID: 0}
  m_PrefabInstance: {fileID: 0}
  m_PrefabAsset: {fileID: 0}
  m_GameObject: {fileID: 4451018293862302076}
  m_Enabled: 1
  m_EditorHideFlags: 0
  m_Script: {fileID: 11500000, guid: 7074a6ffe3fdca64887f6dd83d6d488c, type: 3}
  m_Name: 
  m_EditorClassIdentifier: 
  onHit:
    m_PersistentCalls:
      m_Calls:
      - m_Target: {fileID: 1167023317863992923}
        m_MethodName: Play
        m_Mode: 1
        m_Arguments:
          m_ObjectArgument: {fileID: 0}
          m_ObjectArgumentAssemblyTypeName: UnityEngine.Object, UnityEngine
          m_IntArgument: 0
          m_FloatArgument: 0
          m_StringArgument: 
          m_BoolArgument: 0
        m_CallState: 2
--- !u!1001 &657683637839730227
PrefabInstance:
  m_ObjectHideFlags: 0
  serializedVersion: 2
  m_Modification:
    m_TransformParent: {fileID: 2647716608353473979}
    m_Modifications:
    - target: {fileID: 176486, guid: 00565c6238126424599242cffe0ede5b, type: 3}
      propertyPath: m_Name
      value: SM_Wep_Dagger_01
      objectReference: {fileID: 0}
    - target: {fileID: 453504, guid: 00565c6238126424599242cffe0ede5b, type: 3}
      propertyPath: m_RootOrder
      value: 0
      objectReference: {fileID: 0}
    - target: {fileID: 453504, guid: 00565c6238126424599242cffe0ede5b, type: 3}
      propertyPath: m_LocalPosition.x
      value: 0.1
      objectReference: {fileID: 0}
    - target: {fileID: 453504, guid: 00565c6238126424599242cffe0ede5b, type: 3}
      propertyPath: m_LocalPosition.y
      value: 0.018
      objectReference: {fileID: 0}
    - target: {fileID: 453504, guid: 00565c6238126424599242cffe0ede5b, type: 3}
      propertyPath: m_LocalPosition.z
      value: 0.09
      objectReference: {fileID: 0}
    - target: {fileID: 453504, guid: 00565c6238126424599242cffe0ede5b, type: 3}
      propertyPath: m_LocalRotation.w
      value: -0.032304607
      objectReference: {fileID: 0}
    - target: {fileID: 453504, guid: 00565c6238126424599242cffe0ede5b, type: 3}
      propertyPath: m_LocalRotation.x
      value: 0.033120535
      objectReference: {fileID: 0}
    - target: {fileID: 453504, guid: 00565c6238126424599242cffe0ede5b, type: 3}
      propertyPath: m_LocalRotation.y
      value: -0.7151022
      objectReference: {fileID: 0}
    - target: {fileID: 453504, guid: 00565c6238126424599242cffe0ede5b, type: 3}
      propertyPath: m_LocalRotation.z
      value: 0.69748706
      objectReference: {fileID: 0}
    - target: {fileID: 453504, guid: 00565c6238126424599242cffe0ede5b, type: 3}
      propertyPath: m_LocalEulerAnglesHint.x
      value: -264.508
      objectReference: {fileID: 0}
    - target: {fileID: 453504, guid: 00565c6238126424599242cffe0ede5b, type: 3}
      propertyPath: m_LocalEulerAnglesHint.y
      value: -74.89801
      objectReference: {fileID: 0}
    - target: {fileID: 453504, guid: 00565c6238126424599242cffe0ede5b, type: 3}
      propertyPath: m_LocalEulerAnglesHint.z
      value: -254.964
      objectReference: {fileID: 0}
    m_RemovedComponents: []
  m_SourcePrefab: {fileID: 100100000, guid: 00565c6238126424599242cffe0ede5b, type: 3}
--- !u!4 &657683637839396275 stripped
Transform:
  m_CorrespondingSourceObject: {fileID: 453504, guid: 00565c6238126424599242cffe0ede5b,
    type: 3}
  m_PrefabInstance: {fileID: 657683637839730227}
  m_PrefabAsset: {fileID: 0}
