%YAML 1.1
%TAG !u! tag:unity3d.com,2011:
--- !u!1001 &2346059175829972063
PrefabInstance:
  m_ObjectHideFlags: 0
  serializedVersion: 2
  m_Modification:
    m_TransformParent: {fileID: 7626461750099735508}
    m_Modifications:
    - target: {fileID: 118329173080661323, guid: 7c99fe00463d950438c5f0acf398ae50,
        type: 3}
      propertyPath: m_LocalPosition.y
      value: 2.2
      objectReference: {fileID: 0}
    - target: {fileID: 806561121435506368, guid: 7c99fe00463d950438c5f0acf398ae50,
        type: 3}
      propertyPath: m_RootOrder
      value: 0
      objectReference: {fileID: 0}
    - target: {fileID: 806561121435506368, guid: 7c99fe00463d950438c5f0acf398ae50,
        type: 3}
      propertyPath: m_LocalPosition.x
      value: 0
      objectReference: {fileID: 0}
    - target: {fileID: 806561121435506368, guid: 7c99fe00463d950438c5f0acf398ae50,
        type: 3}
      propertyPath: m_LocalPosition.y
      value: 0
      objectReference: {fileID: 0}
    - target: {fileID: 806561121435506368, guid: 7c99fe00463d950438c5f0acf398ae50,
        type: 3}
      propertyPath: m_LocalPosition.z
      value: 0
      objectReference: {fileID: 0}
    - target: {fileID: 806561121435506368, guid: 7c99fe00463d950438c5f0acf398ae50,
        type: 3}
      propertyPath: m_LocalRotation.w
      value: 1
      objectReference: {fileID: 0}
    - target: {fileID: 806561121435506368, guid: 7c99fe00463d950438c5f0acf398ae50,
        type: 3}
      propertyPath: m_LocalRotation.x
      value: 0
      objectReference: {fileID: 0}
    - target: {fileID: 806561121435506368, guid: 7c99fe00463d950438c5f0acf398ae50,
        type: 3}
      propertyPath: m_LocalRotation.y
      value: 0
      objectReference: {fileID: 0}
    - target: {fileID: 806561121435506368, guid: 7c99fe00463d950438c5f0acf398ae50,
        type: 3}
      propertyPath: m_LocalRotation.z
      value: 0
      objectReference: {fileID: 0}
    - target: {fileID: 806561121435506368, guid: 7c99fe00463d950438c5f0acf398ae50,
        type: 3}
      propertyPath: m_LocalEulerAnglesHint.x
      value: 0
      objectReference: {fileID: 0}
    - target: {fileID: 806561121435506368, guid: 7c99fe00463d950438c5f0acf398ae50,
        type: 3}
      propertyPath: m_LocalEulerAnglesHint.y
      value: 0
      objectReference: {fileID: 0}
    - target: {fileID: 806561121435506368, guid: 7c99fe00463d950438c5f0acf398ae50,
        type: 3}
      propertyPath: m_LocalEulerAnglesHint.z
      value: 0
      objectReference: {fileID: 0}
    - target: {fileID: 6780155521825974099, guid: 7c99fe00463d950438c5f0acf398ae50,
        type: 3}
      propertyPath: m_Name
      value: Archer
      objectReference: {fileID: 0}
    - target: {fileID: 6780155521825974099, guid: 7c99fe00463d950438c5f0acf398ae50,
        type: 3}
      propertyPath: m_IsActive
      value: 1
      objectReference: {fileID: 0}
    m_RemovedComponents: []
  m_SourcePrefab: {fileID: 100100000, guid: 7c99fe00463d950438c5f0acf398ae50, type: 3}
--- !u!1 &9122344397926761228 stripped
GameObject:
  m_CorrespondingSourceObject: {fileID: 6780155521825974099, guid: 7c99fe00463d950438c5f0acf398ae50,
    type: 3}
  m_PrefabInstance: {fileID: 2346059175829972063}
  m_PrefabAsset: {fileID: 0}
--- !u!1001 &3277521266491153596
PrefabInstance:
  m_ObjectHideFlags: 0
  serializedVersion: 2
  m_Modification:
    m_TransformParent: {fileID: 0}
    m_Modifications:
    - target: {fileID: 1090385521813374146, guid: 46be30e16cbb62043828750cb2213176,
        type: 3}
      propertyPath: m_Name
      value: ArcherSpawner
      objectReference: {fileID: 0}
    - target: {fileID: 4947972422930411368, guid: 46be30e16cbb62043828750cb2213176,
        type: 3}
      propertyPath: m_RootOrder
      value: 0
      objectReference: {fileID: 0}
    - target: {fileID: 4947972422930411368, guid: 46be30e16cbb62043828750cb2213176,
        type: 3}
      propertyPath: m_LocalPosition.x
      value: 0
      objectReference: {fileID: 0}
    - target: {fileID: 4947972422930411368, guid: 46be30e16cbb62043828750cb2213176,
        type: 3}
      propertyPath: m_LocalPosition.y
      value: 0
      objectReference: {fileID: 0}
    - target: {fileID: 4947972422930411368, guid: 46be30e16cbb62043828750cb2213176,
        type: 3}
      propertyPath: m_LocalPosition.z
      value: 0
      objectReference: {fileID: 0}
    - target: {fileID: 4947972422930411368, guid: 46be30e16cbb62043828750cb2213176,
        type: 3}
      propertyPath: m_LocalRotation.w
      value: 1
      objectReference: {fileID: 0}
    - target: {fileID: 4947972422930411368, guid: 46be30e16cbb62043828750cb2213176,
        type: 3}
      propertyPath: m_LocalRotation.x
      value: 0
      objectReference: {fileID: 0}
    - target: {fileID: 4947972422930411368, guid: 46be30e16cbb62043828750cb2213176,
        type: 3}
      propertyPath: m_LocalRotation.y
      value: 0
      objectReference: {fileID: 0}
    - target: {fileID: 4947972422930411368, guid: 46be30e16cbb62043828750cb2213176,
        type: 3}
      propertyPath: m_LocalRotation.z
      value: 0
      objectReference: {fileID: 0}
    - target: {fileID: 4947972422930411368, guid: 46be30e16cbb62043828750cb2213176,
        type: 3}
      propertyPath: m_LocalEulerAnglesHint.x
      value: 0
      objectReference: {fileID: 0}
    - target: {fileID: 4947972422930411368, guid: 46be30e16cbb62043828750cb2213176,
        type: 3}
      propertyPath: m_LocalEulerAnglesHint.y
      value: 0
      objectReference: {fileID: 0}
    - target: {fileID: 4947972422930411368, guid: 46be30e16cbb62043828750cb2213176,
        type: 3}
      propertyPath: m_LocalEulerAnglesHint.z
      value: 0
      objectReference: {fileID: 0}
    - target: {fileID: 8717415532744344360, guid: 46be30e16cbb62043828750cb2213176,
        type: 3}
      propertyPath: spawnObjectPrefab
      value: 
      objectReference: {fileID: 9122344397926761228}
    m_RemovedComponents: []
  m_SourcePrefab: {fileID: 100100000, guid: 46be30e16cbb62043828750cb2213176, type: 3}
--- !u!4 &7626461750099735508 stripped
Transform:
  m_CorrespondingSourceObject: {fileID: 4947972422930411368, guid: 46be30e16cbb62043828750cb2213176,
    type: 3}
  m_PrefabInstance: {fileID: 3277521266491153596}
  m_PrefabAsset: {fileID: 0}
