%YAML 1.1
%TAG !u! tag:unity3d.com,2011:
--- !u!114 &11400000
MonoBehaviour:
  m_ObjectHideFlags: 0
  m_CorrespondingSourceObject: {fileID: 0}
  m_PrefabInstance: {fileID: 0}
  m_PrefabAsset: {fileID: 0}
  m_GameObject: {fileID: 0}
  m_Enabled: 1
  m_EditorHideFlags: 0
  m_Script: {fileID: 11500000, guid: 87332ab20661ca545bff872dfe0cf160, type: 3}
  m_Name: Bandit
  m_EditorClassIdentifier: 
  potentialDrops:
  - item: {fileID: 11400000, guid: cf18467bdbddd4843b8e3069cdf16b62, type: 2}
    dropChance:
      startingValue: 1
      percentageAdded: 0
      absoluteAdded: 0.2
    minItems:
      startingValue: 1
      percentageAdded: 0
      absoluteAdded: 0
    maxItems:
      startingValue: 1
      percentageAdded: 0
      absoluteAdded: 0
  - item: {fileID: 11400000, guid: 7e872301dfcd12a458c68c6d5c60cd11, type: 2}
    dropChance:
      startingValue: 1.5
      percentageAdded: 0
      absoluteAdded: 0.15
    minItems:
      startingValue: 1
      percentageAdded: 0
      absoluteAdded: 0
    maxItems:
      startingValue: 1
      percentageAdded: 0
      absoluteAdded: 0
  - item: {fileID: 11400000, guid: 97bb48276ba1d904187abaec8aad1d8e, type: 2}
    dropChance:
      startingValue: 0.5
      percentageAdded: 0
      absoluteAdded: 0.05
    minItems:
      startingValue: 1
      percentageAdded: 0
      absoluteAdded: 0
    maxItems:
      startingValue: 1
      percentageAdded: 0
      absoluteAdded: 0
  - item: {fileID: 11400000, guid: c0aba16851f572b45bc6c94739199ed6, type: 2}
    dropChance:
      startingValue: 10
      percentageAdded: 0
      absoluteAdded: 0.5
    minItems:
      startingValue: 1
      percentageAdded: 0
      absoluteAdded: 0.1
    maxItems:
      startingValue: 5
      percentageAdded: 0
      absoluteAdded: 0.2
