%YAML 1.1
%TAG !u! tag:unity3d.com,2011:
--- !u!1 &5967594732132811304
GameObject:
  m_ObjectHideFlags: 0
  m_CorrespondingSourceObject: {fileID: 0}
  m_PrefabInstance: {fileID: 0}
  m_PrefabAsset: {fileID: 0}
  serializedVersion: 6
  m_Component:
  - component: {fileID: 2678439128467206101}
  - component: {fileID: 1775175647486537322}
  - component: {fileID: -4746632433344302209}
  m_Layer: 0
  m_Name: LifeStealModifier
  m_TagString: Untagged
  m_Icon: {fileID: 0}
  m_NavMeshLayer: 0
  m_StaticEditorFlags: 0
  m_IsActive: 1
--- !u!4 &2678439128467206101
Transform:
  m_ObjectHideFlags: 0
  m_CorrespondingSourceObject: {fileID: 0}
  m_PrefabInstance: {fileID: 0}
  m_PrefabAsset: {fileID: 0}
  m_GameObject: {fileID: 5967594732132811304}
  m_LocalRotation: {x: 0, y: 0, z: 0, w: 1}
  m_LocalPosition: {x: -133.86003, y: -15.854069, z: -127.99855}
  m_LocalScale: {x: 1, y: 1, z: 1}
  m_Children: []
  m_Father: {fileID: 0}
  m_RootOrder: 0
  m_LocalEulerAnglesHint: {x: 0, y: 0, z: 0}
--- !u!114 &1775175647486537322
MonoBehaviour:
  m_ObjectHideFlags: 0
  m_CorrespondingSourceObject: {fileID: 0}
  m_PrefabInstance: {fileID: 0}
  m_PrefabAsset: {fileID: 0}
  m_GameObject: {fileID: 5967594732132811304}
  m_Enabled: 1
  m_EditorHideFlags: 0
  m_Script: {fileID: 11500000, guid: 7074a6ffe3fdca64887f6dd83d6d488c, type: 3}
  m_Name: 
  m_EditorClassIdentifier: 
  onHit:
    m_PersistentCalls:
      m_Calls: []
  onShoot:
    m_PersistentCalls:
      m_Calls: []
--- !u!114 &-4746632433344302209
MonoBehaviour:
  m_ObjectHideFlags: 0
  m_CorrespondingSourceObject: {fileID: 0}
  m_PrefabInstance: {fileID: 0}
  m_PrefabAsset: {fileID: 0}
  m_GameObject: {fileID: 5967594732132811304}
  m_Enabled: 1
  m_EditorHideFlags: 0
  m_Script: {fileID: 11500000, guid: ccf0aaf7a0c13df469d6fab7bf5225cc, type: 3}
  m_Name: 
  m_EditorClassIdentifier: 
  modifierDuration: 10
  amount: 5
  damagePercentage: 25
