%YAML 1.1
%TAG !u! tag:unity3d.com,2011:
--- !u!114 &11400000
MonoBehaviour:
  m_ObjectHideFlags: 0
  m_CorrespondingSourceObject: {fileID: 0}
  m_PrefabInstance: {fileID: 0}
  m_PrefabAsset: {fileID: 0}
  m_GameObject: {fileID: 0}
  m_Enabled: 1
  m_EditorHideFlags: 0
  m_Script: {fileID: 11500000, guid: 8128ba2d1b855f34da4f56759c5c7c89, type: 3}
  m_Name: Necklace
  m_EditorClassIdentifier: 
  itemID: a77ebf65-3715-44c7-aa5d-9f999a7b698a
  displayName: 
  description: "<b>Level Required <b> 6\n<b>Damage</b> +5\n<b>Attack Speed </b> 5
    \n"
  icon: {fileID: 21300000, guid: 0e123cfdc54a3ca4684816a34167a566, type: 3}
  pickup: {fileID: 7760517946983953026, guid: dc922e391760e7f41ba1722edfb978d4, type: 3}
  stackable: 0
  equipmentType: 1
  levelRequired: 0
  additiveModifiers:
  - stat: 3
    value: 5
  - stat: 8
    value: 5
  multiplicativeModifiers:
  - stat: 3
    value: 10
