%YAML 1.1
%TAG !u! tag:unity3d.com,2011:
--- !u!136 &9054413772542895633
CapsuleCollider:
  m_ObjectHideFlags: 0
  m_CorrespondingSourceObject: {fileID: 0}
  m_PrefabInstance: {fileID: 0}
  m_PrefabAsset: {fileID: 0}
  m_GameObject: {fileID: 6780155521825974099}
  m_Material: {fileID: 0}
  m_IsTrigger: 0
  m_Enabled: 1
  m_Radius: 0.6
  m_Height: 2
  m_Direction: 1
  m_Center: {x: 0, y: 1, z: 0}
--- !u!1001 &6977368705906090236
PrefabInstance:
  m_ObjectHideFlags: 0
  serializedVersion: 2
  m_Modification:
    m_TransformParent: {fileID: 806561121435506368}
    m_Modifications:
    - target: {fileID: 133518, guid: 30cf93deff988e74e88a144bd2127c18, type: 3}
      propertyPath: m_Name
      value: Character_Knights_Soldier_01
      objectReference: {fileID: 0}
    - target: {fileID: 417656, guid: 30cf93deff988e74e88a144bd2127c18, type: 3}
      propertyPath: m_RootOrder
      value: 0
      objectReference: {fileID: 0}
    - target: {fileID: 417656, guid: 30cf93deff988e74e88a144bd2127c18, type: 3}
      propertyPath: m_LocalPosition.x
      value: 0
      objectReference: {fileID: 0}
    - target: {fileID: 417656, guid: 30cf93deff988e74e88a144bd2127c18, type: 3}
      propertyPath: m_LocalPosition.y
      value: 0
      objectReference: {fileID: 0}
    - target: {fileID: 417656, guid: 30cf93deff988e74e88a144bd2127c18, type: 3}
      propertyPath: m_LocalPosition.z
      value: 0
      objectReference: {fileID: 0}
    - target: {fileID: 417656, guid: 30cf93deff988e74e88a144bd2127c18, type: 3}
      propertyPath: m_LocalRotation.w
      value: 1
      objectReference: {fileID: 0}
    - target: {fileID: 417656, guid: 30cf93deff988e74e88a144bd2127c18, type: 3}
      propertyPath: m_LocalRotation.x
      value: 0
      objectReference: {fileID: 0}
    - target: {fileID: 417656, guid: 30cf93deff988e74e88a144bd2127c18, type: 3}
      propertyPath: m_LocalRotation.y
      value: 0
      objectReference: {fileID: 0}
    - target: {fileID: 417656, guid: 30cf93deff988e74e88a144bd2127c18, type: 3}
      propertyPath: m_LocalRotation.z
      value: 0
      objectReference: {fileID: 0}
    - target: {fileID: 417656, guid: 30cf93deff988e74e88a144bd2127c18, type: 3}
      propertyPath: m_LocalEulerAnglesHint.x
      value: 0
      objectReference: {fileID: 0}
    - target: {fileID: 417656, guid: 30cf93deff988e74e88a144bd2127c18, type: 3}
      propertyPath: m_LocalEulerAnglesHint.y
      value: 0
      objectReference: {fileID: 0}
    - target: {fileID: 417656, guid: 30cf93deff988e74e88a144bd2127c18, type: 3}
      propertyPath: m_LocalEulerAnglesHint.z
      value: 0
      objectReference: {fileID: 0}
    - target: {fileID: 13787996, guid: 30cf93deff988e74e88a144bd2127c18, type: 3}
      propertyPath: m_Materials.Array.data[0]
      value: 
      objectReference: {fileID: 2100000, guid: bfbe2e8b331e2cc42be1591f949c0e41, type: 2}
    m_RemovedComponents: []
  m_SourcePrefab: {fileID: 100100000, guid: 30cf93deff988e74e88a144bd2127c18, type: 3}
--- !u!4 &6977368705905915888 stripped
Transform:
  m_CorrespondingSourceObject: {fileID: 481036, guid: 30cf93deff988e74e88a144bd2127c18,
    type: 3}
  m_PrefabInstance: {fileID: 6977368705906090236}
  m_PrefabAsset: {fileID: 0}
--- !u!4 &6977368705905973234 stripped
Transform:
  m_CorrespondingSourceObject: {fileID: 423694, guid: 30cf93deff988e74e88a144bd2127c18,
    type: 3}
  m_PrefabInstance: {fileID: 6977368705906090236}
  m_PrefabAsset: {fileID: 0}
--- !u!1001 &8737185491587458052
PrefabInstance:
  m_ObjectHideFlags: 0
  serializedVersion: 2
  m_Modification:
    m_TransformParent: {fileID: 0}
    m_Modifications:
    - target: {fileID: 2467130146004078694, guid: 5889855bd96fae24692bc1cce4c034c2,
        type: 3}
      propertyPath: m_RootOrder
      value: 3
      objectReference: {fileID: 0}
    - target: {fileID: 2834809736175764311, guid: 5889855bd96fae24692bc1cce4c034c2,
        type: 3}
      propertyPath: m_Name
      value: Archer
      objectReference: {fileID: 0}
    - target: {fileID: 5274984061736170988, guid: 5889855bd96fae24692bc1cce4c034c2,
        type: 3}
      propertyPath: m_RootOrder
      value: 2
      objectReference: {fileID: 0}
    - target: {fileID: 6860228892176376791, guid: 5889855bd96fae24692bc1cce4c034c2,
        type: 3}
      propertyPath: defaultWeapon
      value: 
      objectReference: {fileID: 11400000, guid: b0b5b1d80d573cb4491a8ef669fd8472,
        type: 2}
    - target: {fileID: 6860228892176376791, guid: 5889855bd96fae24692bc1cce4c034c2,
        type: 3}
      propertyPath: leftHandTransform
      value: 
      objectReference: {fileID: 6977368705905915888}
    - target: {fileID: 6860228892176376791, guid: 5889855bd96fae24692bc1cce4c034c2,
        type: 3}
      propertyPath: rightHandTransform
      value: 
      objectReference: {fileID: 6977368705905973234}
    - target: {fileID: 7432132976445714535, guid: 5889855bd96fae24692bc1cce4c034c2,
        type: 3}
      propertyPath: dropLibrary
      value: 
      objectReference: {fileID: 11400000, guid: c5fb268dc6d91364687fffd0b955bcca,
        type: 2}
    - target: {fileID: 7432132976445714535, guid: 5889855bd96fae24692bc1cce4c034c2,
        type: 3}
      propertyPath: dropLibrary.Array.size
      value: 2
      objectReference: {fileID: 0}
    - target: {fileID: 7432132976445714535, guid: 5889855bd96fae24692bc1cce4c034c2,
        type: 3}
      propertyPath: dropLibrary.Array.data[0]
      value: 
      objectReference: {fileID: 11400000, guid: f879e2cd04041fb46aa1ccfb60290892,
        type: 2}
    - target: {fileID: 7432132976445714535, guid: 5889855bd96fae24692bc1cce4c034c2,
        type: 3}
      propertyPath: dropLibrary.Array.data[1]
      value: 
      objectReference: {fileID: 11400000, guid: b0b5b1d80d573cb4491a8ef669fd8472,
        type: 2}
    - target: {fileID: 7644750570681515562, guid: 5889855bd96fae24692bc1cce4c034c2,
        type: 3}
      propertyPath: progression
      value: 
      objectReference: {fileID: 11400000, guid: 52f42e7af7e78404e92555089faaedc0,
        type: 2}
    - target: {fileID: 7644750570681515562, guid: 5889855bd96fae24692bc1cce4c034c2,
        type: 3}
      propertyPath: characterClass
      value: 3
      objectReference: {fileID: 0}
    - target: {fileID: 7847849887827126231, guid: 5889855bd96fae24692bc1cce4c034c2,
        type: 3}
      propertyPath: m_RootOrder
      value: 1
      objectReference: {fileID: 0}
    - target: {fileID: 8246597761270133444, guid: 5889855bd96fae24692bc1cce4c034c2,
        type: 3}
      propertyPath: m_RootOrder
      value: 0
      objectReference: {fileID: 0}
    - target: {fileID: 8246597761270133444, guid: 5889855bd96fae24692bc1cce4c034c2,
        type: 3}
      propertyPath: m_LocalPosition.x
      value: 0
      objectReference: {fileID: 0}
    - target: {fileID: 8246597761270133444, guid: 5889855bd96fae24692bc1cce4c034c2,
        type: 3}
      propertyPath: m_LocalPosition.y
      value: 0
      objectReference: {fileID: 0}
    - target: {fileID: 8246597761270133444, guid: 5889855bd96fae24692bc1cce4c034c2,
        type: 3}
      propertyPath: m_LocalPosition.z
      value: 0
      objectReference: {fileID: 0}
    - target: {fileID: 8246597761270133444, guid: 5889855bd96fae24692bc1cce4c034c2,
        type: 3}
      propertyPath: m_LocalRotation.w
      value: 1
      objectReference: {fileID: 0}
    - target: {fileID: 8246597761270133444, guid: 5889855bd96fae24692bc1cce4c034c2,
        type: 3}
      propertyPath: m_LocalRotation.x
      value: 0
      objectReference: {fileID: 0}
    - target: {fileID: 8246597761270133444, guid: 5889855bd96fae24692bc1cce4c034c2,
        type: 3}
      propertyPath: m_LocalRotation.y
      value: 0
      objectReference: {fileID: 0}
    - target: {fileID: 8246597761270133444, guid: 5889855bd96fae24692bc1cce4c034c2,
        type: 3}
      propertyPath: m_LocalRotation.z
      value: 0
      objectReference: {fileID: 0}
    - target: {fileID: 8246597761270133444, guid: 5889855bd96fae24692bc1cce4c034c2,
        type: 3}
      propertyPath: m_LocalEulerAnglesHint.x
      value: 0
      objectReference: {fileID: 0}
    - target: {fileID: 8246597761270133444, guid: 5889855bd96fae24692bc1cce4c034c2,
        type: 3}
      propertyPath: m_LocalEulerAnglesHint.y
      value: 0
      objectReference: {fileID: 0}
    - target: {fileID: 8246597761270133444, guid: 5889855bd96fae24692bc1cce4c034c2,
        type: 3}
      propertyPath: m_LocalEulerAnglesHint.z
      value: 0
      objectReference: {fileID: 0}
    - target: {fileID: 8931743863369180047, guid: 5889855bd96fae24692bc1cce4c034c2,
        type: 3}
      propertyPath: aggroDistance
      value: 10
      objectReference: {fileID: 0}
    - target: {fileID: 8931743863369180047, guid: 5889855bd96fae24692bc1cce4c034c2,
        type: 3}
      propertyPath: chaseDistance
      value: 15
      objectReference: {fileID: 0}
    - target: {fileID: 8931743863369180047, guid: 5889855bd96fae24692bc1cce4c034c2,
        type: 3}
      propertyPath: forgetDistance
      value: 15
      objectReference: {fileID: 0}
    - target: {fileID: 8931743863369180047, guid: 5889855bd96fae24692bc1cce4c034c2,
        type: 3}
      propertyPath: detectionDistance
      value: 8
      objectReference: {fileID: 0}
    m_RemovedComponents: []
  m_SourcePrefab: {fileID: 100100000, guid: 5889855bd96fae24692bc1cce4c034c2, type: 3}
--- !u!1 &6780155521825974099 stripped
GameObject:
  m_CorrespondingSourceObject: {fileID: 2834809736175764311, guid: 5889855bd96fae24692bc1cce4c034c2,
    type: 3}
  m_PrefabInstance: {fileID: 8737185491587458052}
  m_PrefabAsset: {fileID: 0}
--- !u!4 &806561121435506368 stripped
Transform:
  m_CorrespondingSourceObject: {fileID: 8246597761270133444, guid: 5889855bd96fae24692bc1cce4c034c2,
    type: 3}
  m_PrefabInstance: {fileID: 8737185491587458052}
  m_PrefabAsset: {fileID: 0}
